%YAML 1.1
%TAG !u! tag:unity3d.com,2011:
--- !u!114 &11400000
MonoBehaviour:
  m_ObjectHideFlags: 0
  m_CorrespondingSourceObject: {fileID: 0}
  m_PrefabInternal: {fileID: 0}
  m_GameObject: {fileID: 0}
  m_Enabled: 1
  m_EditorHideFlags: 0
  m_Script: {fileID: 11500000, guid: 3dab462140e4cc94591656f2e04de07d, type: 3}
  m_Name: Gear 2
  m_EditorClassIdentifier: 
  m_minimumSpeed: 20
  m_maximumSpeed: 50
